…
**size and structure of the data**: Number of rows is 1384617, Number of
columns is 15. **key variables**: aisle, product\_name, , order\_dow,
order\_hour\_of\_day.

### How many aisles are there, and which aisles are the most items ordered from?

``` r
instacart %>%
  group_by(aisle) %>%
  summarise(n_obs = n()) %>%
  mutate (ranking = min_rank(n_obs))
```

    ## # A tibble: 134 × 3
    ##    aisle                  n_obs ranking
    ##    <chr>                  <int>   <int>
    ##  1 air fresheners candles  1067      26
    ##  2 asian foods             7007      82
    ##  3 baby accessories         306       3
    ##  4 baby bath body care      328       4
    ##  5 baby food formula      13198     109
    ##  6 bakery desserts         1501      36
    ##  7 baking ingredients     13088     108
    ##  8 baking supplies decor   1094      29
    ##  9 beauty                   287       1
    ## 10 beers coolers           1839      45
    ## # … with 124 more rows
…
## Problem 2

``` r
library(p8105.datasets)
  data("brfss_smart2010")
```

### do some data cleaning:

``` r
## format the data to use appropriate variable names
janitor::clean_names(brfss_smart2010)
```

    ## # A tibble: 134,203 × 23
    ##     year locationabbr locationdesc  class  topic question   response sample_size
    ##    <int> <chr>        <chr>         <chr>  <chr> <chr>      <chr>          <int>
    ##  1  2010 AL           AL - Jeffers… Healt… Over… How is yo… Excelle…          94
    ##  2  2010 AL           AL - Jeffers… Healt… Over… How is yo… Very go…         148
    ##  3  2010 AL           AL - Jeffers… Healt… Over… How is yo… Good             208
    ##  4  2010 AL           AL - Jeffers… Healt… Over… How is yo… Fair             107
    ##  5  2010 AL           AL - Jeffers… Healt… Over… How is yo… Poor              45
    ##  6  2010 AL           AL - Jeffers… Healt… Fair… Health St… Good or…         450
    ##  7  2010 AL           AL - Jeffers… Healt… Fair… Health St… Fair or…         152
    ##  8  2010 AL           AL - Jeffers… Healt… Heal… Do you ha… Yes              524
    ##  9  2010 AL           AL - Jeffers… Healt… Heal… Do you ha… No                77
    ## 10  2010 AL           AL - Jeffers… Healt… Unde… Adults ag… Yes              316
    ## # … with 134,193 more rows, and 15 more variables: data_value <dbl>,
    ## #   confidence_limit_low <dbl>, confidence_limit_high <dbl>,
    ## #   display_order <int>, data_value_unit <chr>, data_value_type <chr>,
    ## #   data_value_footnote_symbol <chr>, data_value_footnote <chr>,
    ## #   data_source <chr>, class_id <chr>, topic_id <chr>, location_id <chr>,
    ## #   question_id <chr>, respid <chr>, geo_location <chr>
…
